127.0.0.1 - - [20/Feb/2021:07:26:11 +0530] "GET / HTTP/1.1" 404 751
0:0:0:0:0:0:0:1 - - [20/Feb/2021:07:26:14 +0530] "GET /newstationary-salesmanagementsystem/head-office.jsp HTTP/1.1" 200 2164
0:0:0:0:0:0:0:1 - - [20/Feb/2021:07:28:02 +0530] "GET /newstationary-salesmanagementsystem/index.jsp HTTP/1.1" 200 1863
0:0:0:0:0:0:0:1 - - [20/Feb/2021:07:28:02 +0530] "GET /newstationary-salesmanagementsystem/stationery-products.jpg HTTP/1.1" 404 814
0:0:0:0:0:0:0:1 - - [20/Feb/2021:07:28:05 +0530] "GET /newstationary-salesmanagementsystem/head-office.jsp HTTP/1.1" 200 2164
0:0:0:0:0:0:0:1 - - [20/Feb/2021:07:42:03 +0530] "GET /newstationary-salesmanagementsystem/head-office.jsp HTTP/1.1" 200 2164
0:0:0:0:0:0:0:1 - - [20/Feb/2021:07:42:03 +0530] "GET /favicon.ico HTTP/1.1" 404 762
0:0:0:0:0:0:0:1 - - [20/Feb/2021:07:42:18 +0530] "GET /newstationary-salesmanagementsystem/index.jsp HTTP/1.1" 200 1863
0:0:0:0:0:0:0:1 - - [20/Feb/2021:07:42:18 +0530] "GET /newstationary-salesmanagementsystem/stationery-products.jpg HTTP/1.1" 404 814
0:0:0:0:0:0:0:1 - - [20/Feb/2021:07:42:23 +0530] "GET /newstationary-salesmanagementsystem/head-office.jsp HTTP/1.1" 200 2164
0:0:0:0:0:0:0:1 - - [20/Feb/2021:07:45:33 +0530] "GET /newstationary-salesmanagementsystem/head-office.jsp HTTP/1.1" 200 2183
0:0:0:0:0:0:0:1 - - [20/Feb/2021:07:45:37 +0530] "GET /newstationary-salesmanagementsystem/employee-details.jsp HTTP/1.1" 200 2090
0:0:0:0:0:0:0:1 - - [20/Feb/2021:07:46:08 +0530] "GET /newstationary-salesmanagementsystem/index.jsp HTTP/1.1" 200 1863
0:0:0:0:0:0:0:1 - - [20/Feb/2021:07:46:08 +0530] "GET /newstationary-salesmanagementsystem/stationery-products.jpg HTTP/1.1" 404 814
0:0:0:0:0:0:0:1 - - [20/Feb/2021:07:46:12 +0530] "GET /newstationary-salesmanagementsystem/head-office.jsp HTTP/1.1" 200 2183
0:0:0:0:0:0:0:1 - - [20/Feb/2021:07:46:47 +0530] "GET /newstationary-salesmanagementsystem/employee-details.jsp HTTP/1.1" 200 2090
0:0:0:0:0:0:0:1 - - [20/Feb/2021:07:50:00 +0530] "GET /newstationary-salesmanagementsystem/employee-details.jsp HTTP/1.1" 200 1620
0:0:0:0:0:0:0:1 - - [20/Feb/2021:07:50:09 +0530] "GET /newstationary-salesmanagementsystem/employee-details.jsp HTTP/1.1" 200 1620
0:0:0:0:0:0:0:1 - - [20/Feb/2021:07:50:10 +0530] "GET /newstationary-salesmanagementsystem/employee-details.jsp HTTP/1.1" 200 1620
0:0:0:0:0:0:0:1 - - [20/Feb/2021:07:50:14 +0530] "GET /newstationary-salesmanagementsystem/head-office.jsp HTTP/1.1" 200 1313
0:0:0:0:0:0:0:1 - - [20/Feb/2021:07:50:17 +0530] "GET /newstationary-salesmanagementsystem/employee-details.jsp HTTP/1.1" 200 1620
0:0:0:0:0:0:0:1 - - [20/Feb/2021:07:50:21 +0530] "GET /newstationary-salesmanagementsystem/head-office.jsp HTTP/1.1" 200 1313
0:0:0:0:0:0:0:1 - - [20/Feb/2021:07:50:24 +0530] "GET /newstationary-salesmanagementsystem/employee-details.jsp HTTP/1.1" 200 1620
0:0:0:0:0:0:0:1 - - [20/Feb/2021:07:52:33 +0530] "GET /newstationary-salesmanagementsystem/head-office.jsp HTTP/1.1" 200 1313
0:0:0:0:0:0:0:1 - - [20/Feb/2021:07:52:38 +0530] "GET /newstationary-salesmanagementsystem/employee-details.jsp HTTP/1.1" 200 1620
0:0:0:0:0:0:0:1 - - [20/Feb/2021:07:55:25 +0530] "GET /newstationary-salesmanagementsystem/employee-details.jsp HTTP/1.1" 200 1620
0:0:0:0:0:0:0:1 - - [20/Feb/2021:07:55:26 +0530] "GET /newstationary-salesmanagementsystem/employee-details.jsp HTTP/1.1" 200 1620
0:0:0:0:0:0:0:1 - - [20/Feb/2021:07:55:26 +0530] "GET /newstationary-salesmanagementsystem/employee-details.jsp HTTP/1.1" 200 1620
0:0:0:0:0:0:0:1 - - [20/Feb/2021:07:55:27 +0530] "GET /newstationary-salesmanagementsystem/employee-details.jsp HTTP/1.1" 200 1620
0:0:0:0:0:0:0:1 - - [20/Feb/2021:07:55:30 +0530] "GET /newstationary-salesmanagementsystem/employee-details.jsp HTTP/1.1" 200 1620
0:0:0:0:0:0:0:1 - - [20/Feb/2021:07:57:50 +0530] "GET /newstationary-salesmanagementsystem/employee-details.jsp HTTP/1.1" 200 1620
0:0:0:0:0:0:0:1 - - [20/Feb/2021:07:57:51 +0530] "GET /newstationary-salesmanagementsystem/employee-details.jsp HTTP/1.1" 200 1620
127.0.0.1 - - [20/Feb/2021:07:58:36 +0530] "GET / HTTP/1.1" 404 751
0:0:0:0:0:0:0:1 - - [20/Feb/2021:07:58:37 +0530] "GET /newstationary-salesmanagementsystem/product-details.jsp HTTP/1.1" 200 1140
0:0:0:0:0:0:0:1 - - [20/Feb/2021:07:58:43 +0530] "GET /newstationary-salesmanagementsystem/add-product.jsp HTTP/1.1" 200 1924
0:0:0:0:0:0:0:1 - - [20/Feb/2021:07:58:45 +0530] "GET /newstationary-salesmanagementsystem/search-edit.jsp HTTP/1.1" 200 2494
0:0:0:0:0:0:0:1 - - [20/Feb/2021:07:58:48 +0530] "GET /newstationary-salesmanagementsystem/ProductViewer?action=all HTTP/1.1" 200 3654
0:0:0:0:0:0:0:1 - - [20/Feb/2021:07:58:48 +0530] "GET /newstationary-salesmanagementsystem/ProductViewer?action=all HTTP/1.1" 200 3654
0:0:0:0:0:0:0:1 - - [20/Feb/2021:07:58:52 +0530] "GET /newstationary-salesmanagementsystem/EmployeeViewer?action=all HTTP/1.1" 200 3061
0:0:0:0:0:0:0:1 - - [20/Feb/2021:07:59:07 +0530] "GET /newstationary-salesmanagementsystem/EmployeeViewer?action=all HTTP/1.1" 200 3061
0:0:0:0:0:0:0:1 - - [20/Feb/2021:07:59:18 +0530] "GET /newstationary-salesmanagementsystem/employee-details.jsp HTTP/1.1" 200 1620
0:0:0:0:0:0:0:1 - - [20/Feb/2021:08:01:18 +0530] "GET /newstationary-salesmanagementsystem/head-office.jsp HTTP/1.1" 200 1318
0:0:0:0:0:0:0:1 - - [20/Feb/2021:08:01:20 +0530] "GET /newstationary-salesmanagementsystem/EmployeeViewer?action=all HTTP/1.1" 200 3061
0:0:0:0:0:0:0:1 - - [20/Feb/2021:08:02:44 +0530] "GET /newstationary-salesmanagementsystem/EmployeeViewer?action=all HTTP/1.1" 200 3166
0:0:0:0:0:0:0:1 - - [20/Feb/2021:08:02:46 +0530] "GET /newstationary-salesmanagementsystem/index.jsp HTTP/1.1" 200 1863
0:0:0:0:0:0:0:1 - - [20/Feb/2021:08:02:46 +0530] "GET /newstationary-salesmanagementsystem/stationery-products.jpg HTTP/1.1" 404 814
0:0:0:0:0:0:0:1 - - [20/Feb/2021:08:02:50 +0530] "GET /newstationary-salesmanagementsystem/head-office.jsp HTTP/1.1" 200 1421
0:0:0:0:0:0:0:1 - - [20/Feb/2021:08:02:54 +0530] "GET /newstationary-salesmanagementsystem/index.jsp HTTP/1.1" 200 1863
0:0:0:0:0:0:0:1 - - [20/Feb/2021:08:02:54 +0530] "GET /newstationary-salesmanagementsystem/stationery-products.jpg HTTP/1.1" 404 814
0:0:0:0:0:0:0:1 - - [20/Feb/2021:08:02:57 +0530] "GET /newstationary-salesmanagementsystem/head-office.jsp HTTP/1.1" 200 1421
0:0:0:0:0:0:0:1 - - [20/Feb/2021:08:02:59 +0530] "GET /newstationary-salesmanagementsystem/EmployeeViewer?action=all HTTP/1.1" 200 3166
127.0.0.1 - - [20/Feb/2021:08:04:20 +0530] "GET / HTTP/1.1" 404 751
0:0:0:0:0:0:0:1 - - [20/Feb/2021:08:04:21 +0530] "GET /newstationary-salesmanagementsystem/ HTTP/1.1" 200 1863
0:0:0:0:0:0:0:1 - - [20/Feb/2021:08:04:21 +0530] "GET /newstationary-salesmanagementsystem/stationery-products.jpg HTTP/1.1" 404 814
0:0:0:0:0:0:0:1 - - [20/Feb/2021:08:08:30 +0530] "GET /newstationary-salesmanagementsystem/ HTTP/1.1" 200 1429
0:0:0:0:0:0:0:1 - - [20/Feb/2021:08:08:30 +0530] "GET /newstationary-salesmanagementsystem/ HTTP/1.1" 200 1429
0:0:0:0:0:0:0:1 - - [20/Feb/2021:08:08:32 +0530] "GET /newstationary-salesmanagementsystem/ HTTP/1.1" 200 1429
0:0:0:0:0:0:0:1 - - [20/Feb/2021:08:09:19 +0530] "GET /newstationary-salesmanagementsystem/ HTTP/1.1" 200 1429
0:0:0:0:0:0:0:1 - - [20/Feb/2021:08:09:27 +0530] "GET /newstationary-salesmanagementsystem/index.jsp HTTP/1.1" 200 1429
0:0:0:0:0:0:0:1 - - [20/Feb/2021:08:09:29 +0530] "GET /newstationary-salesmanagementsystem/index.jsp HTTP/1.1" 200 1429
0:0:0:0:0:0:0:1 - - [20/Feb/2021:08:09:38 +0530] "GET /newstationary-salesmanagementsystem/index.jsp HTTP/1.1" 200 1429
0:0:0:0:0:0:0:1 - - [20/Feb/2021:08:10:35 +0530] "GET /newstationary-salesmanagementsystem/index.jsp HTTP/1.1" 200 1428
0:0:0:0:0:0:0:1 - - [20/Feb/2021:08:10:41 +0530] "GET /newstationary-salesmanagementsystem/home.jsp HTTP/1.1" 200 1924
0:0:0:0:0:0:0:1 - - [20/Feb/2021:08:10:42 +0530] "GET /newstationary-salesmanagementsystem/stationery-products.jpg HTTP/1.1" 404 814
0:0:0:0:0:0:0:1 - - [20/Feb/2021:08:10:44 +0530] "GET /newstationary-salesmanagementsystem/head-office.jsp HTTP/1.1" 200 1420
0:0:0:0:0:0:0:1 - - [20/Feb/2021:08:10:49 +0530] "GET /newstationary-salesmanagementsystem/EmployeeViewer?action=all HTTP/1.1" 200 3165
0:0:0:0:0:0:0:1 - - [20/Feb/2021:08:10:56 +0530] "GET /newstationary-salesmanagementsystem/home.jsp HTTP/1.1" 200 1924
0:0:0:0:0:0:0:1 - - [20/Feb/2021:08:10:56 +0530] "GET /newstationary-salesmanagementsystem/stationery-products.jpg HTTP/1.1" 404 814
0:0:0:0:0:0:0:1 - - [20/Feb/2021:08:10:59 +0530] "GET /newstationary-salesmanagementsystem/head-office.jsp HTTP/1.1" 200 1420
0:0:0:0:0:0:0:1 - - [20/Feb/2021:08:11:06 +0530] "GET /newstationary-salesmanagementsystem/EmployeeViewer?action=all HTTP/1.1" 200 3165
0:0:0:0:0:0:0:1 - - [20/Feb/2021:08:23:55 +0530] "GET /newstationary-salesmanagementsystem/head-office.jsp HTTP/1.1" 200 1420
0:0:0:0:0:0:0:1 - - [20/Feb/2021:08:23:57 +0530] "GET /newstationary-salesmanagementsystem/EmployeeViewer?action=all HTTP/1.1" 200 3165
0:0:0:0:0:0:0:1 - - [20/Feb/2021:08:23:58 +0530] "GET /newstationary-salesmanagementsystem/head-office.jsp HTTP/1.1" 200 1420
0:0:0:0:0:0:0:1 - - [20/Feb/2021:08:24:05 +0530] "GET /newstationary-salesmanagementsystem/home.jsp HTTP/1.1" 200 1924
0:0:0:0:0:0:0:1 - - [20/Feb/2021:08:24:05 +0530] "GET /newstationary-salesmanagementsystem/stationery-products.jpg HTTP/1.1" 404 814
0:0:0:0:0:0:0:1 - - [20/Feb/2021:08:24:09 +0530] "GET /newstationary-salesmanagementsystem/head-office.jsp HTTP/1.1" 200 1420
0:0:0:0:0:0:0:1 - - [20/Feb/2021:08:24:11 +0530] "GET /newstationary-salesmanagementsystem/EmployeeViewer?action=all HTTP/1.1" 200 3165
0:0:0:0:0:0:0:1 - - [20/Feb/2021:08:40:58 +0530] "GET /newstationary-salesmanagementsystem/EmployeeViewer?action=all HTTP/1.1" 200 3251
0:0:0:0:0:0:0:1 - - [20/Feb/2021:08:42:08 +0530] "GET /newstationary-salesmanagementsystem/EmployeeViewer?action=all HTTP/1.1" 200 3251
0:0:0:0:0:0:0:1 - - [20/Feb/2021:08:42:31 +0530] "GET /newstationary-salesmanagementsystem/head-office.jsp HTTP/1.1" 200 1420
0:0:0:0:0:0:0:1 - - [20/Feb/2021:08:42:33 +0530] "GET /newstationary-salesmanagementsystem/home.jsp HTTP/1.1" 200 1924
0:0:0:0:0:0:0:1 - - [20/Feb/2021:08:42:33 +0530] "GET /newstationary-salesmanagementsystem/stationery-products.jpg HTTP/1.1" 404 814
0:0:0:0:0:0:0:1 - - [20/Feb/2021:08:42:34 +0530] "GET /newstationary-salesmanagementsystem/head-office.jsp HTTP/1.1" 200 1420
0:0:0:0:0:0:0:1 - - [20/Feb/2021:08:42:36 +0530] "GET /newstationary-salesmanagementsystem/EmployeeViewer?action=all HTTP/1.1" 200 3251
0:0:0:0:0:0:0:1 - - [20/Feb/2021:09:32:06 +0530] "GET /newstationary-salesmanagementsystem/EmployeeViewer?action=all HTTP/1.1" 200 4026
0:0:0:0:0:0:0:1 - - [20/Feb/2021:09:43:08 +0530] "GET /newstationary-salesmanagementsystem/ HTTP/1.1" 200 1428
0:0:0:0:0:0:0:1 - - [20/Feb/2021:09:43:27 +0530] "GET /newstationary-salesmanagementsystem/home.jsp HTTP/1.1" 200 1924
0:0:0:0:0:0:0:1 - - [20/Feb/2021:09:43:27 +0530] "GET /newstationary-salesmanagementsystem/stationery-products.jpg HTTP/1.1" 404 814
0:0:0:0:0:0:0:1 - - [20/Feb/2021:09:43:32 +0530] "GET /newstationary-salesmanagementsystem/head-office.jsp HTTP/1.1" 200 1420
0:0:0:0:0:0:0:1 - - [20/Feb/2021:09:43:38 +0530] "GET /newstationary-salesmanagementsystem/EmployeeViewer?action=all HTTP/1.1" 200 4026
0:0:0:0:0:0:0:1 - - [20/Feb/2021:09:43:42 +0530] "GET /newstationary-salesmanagementsystem/head-office.jsp HTTP/1.1" 200 1420
0:0:0:0:0:0:0:1 - - [20/Feb/2021:09:43:53 +0530] "GET /newstationary-salesmanagementsystem/home.jsp HTTP/1.1" 200 1924
0:0:0:0:0:0:0:1 - - [20/Feb/2021:09:43:53 +0530] "GET /newstationary-salesmanagementsystem/stationery-products.jpg HTTP/1.1" 404 814
0:0:0:0:0:0:0:1 - - [20/Feb/2021:09:44:03 +0530] "GET /newstationary-salesmanagementsystem/head-office.jsp HTTP/1.1" 200 1420
0:0:0:0:0:0:0:1 - - [20/Feb/2021:09:44:10 +0530] "GET /newstationary-salesmanagementsystem/EmployeeViewer?action=all HTTP/1.1" 200 4026
0:0:0:0:0:0:0:1 - - [20/Feb/2021:09:44:12 +0530] "GET /newstationary-salesmanagementsystem/head-office.jsp HTTP/1.1" 200 1420
0:0:0:0:0:0:0:1 - - [20/Feb/2021:09:44:19 +0530] "GET /newstationary-salesmanagementsystem/EmployeeViewer?action=all HTTP/1.1" 200 4026
0:0:0:0:0:0:0:1 - - [20/Feb/2021:09:46:36 +0530] "GET /newstationary-salesmanagementsystem/home.jsp HTTP/1.1" 200 1924
0:0:0:0:0:0:0:1 - - [20/Feb/2021:09:46:36 +0530] "GET /newstationary-salesmanagementsystem/stationery-products.jpg HTTP/1.1" 404 814
0:0:0:0:0:0:0:1 - - [20/Feb/2021:09:46:39 +0530] "GET /newstationary-salesmanagementsystem/head-office.jsp HTTP/1.1" 200 1420
0:0:0:0:0:0:0:1 - - [20/Feb/2021:09:46:43 +0530] "GET /newstationary-salesmanagementsystem/home.jsp HTTP/1.1" 200 1924
0:0:0:0:0:0:0:1 - - [20/Feb/2021:09:46:43 +0530] "GET /newstationary-salesmanagementsystem/stationery-products.jpg HTTP/1.1" 404 814
0:0:0:0:0:0:0:1 - - [20/Feb/2021:09:46:46 +0530] "GET /newstationary-salesmanagementsystem/head-office.jsp HTTP/1.1" 200 1420
0:0:0:0:0:0:0:1 - - [20/Feb/2021:09:50:55 +0530] "GET /newstationary-salesmanagementsystem/home.jsp HTTP/1.1" 200 1924
0:0:0:0:0:0:0:1 - - [20/Feb/2021:09:50:55 +0530] "GET /newstationary-salesmanagementsystem/stationery-products.jpg HTTP/1.1" 404 814
0:0:0:0:0:0:0:1 - - [20/Feb/2021:09:52:02 +0530] "GET /newstationary-salesmanagementsystem/head-office.jsp HTTP/1.1" 200 1420
0:0:0:0:0:0:0:1 - - [20/Feb/2021:09:52:06 +0530] "GET /newstationary-salesmanagementsystem/EmployeeViewer?action=all HTTP/1.1" 200 4026
0:0:0:0:0:0:0:1 - - [20/Feb/2021:09:54:28 +0530] "GET /newstationary-salesmanagementsystem/head-office.jsp HTTP/1.1" 200 1420
