127.0.0.1 - - [05/Feb/2021:09:18:56 +0530] "GET / HTTP/1.1" 404 751
0:0:0:0:0:0:0:1 - - [05/Feb/2021:09:18:59 +0530] "GET /newstationary-salesmanagementsystem/ProductViewer HTTP/1.1" 500 1395
0:0:0:0:0:0:0:1 - - [05/Feb/2021:09:20:57 +0530] "GET /newstationary-salesmanagementsystem/ProductViewer?action=all HTTP/1.1" 200 989
0:0:0:0:0:0:0:1 - - [05/Feb/2021:09:21:15 +0530] "GET /newstationary-salesmanagementsystem/ProductViewer?action=all HTTP/1.1" 200 989
0:0:0:0:0:0:0:1 - - [05/Feb/2021:09:21:18 +0530] "GET /newstationary-salesmanagementsystem/ProductViewer?action=all HTTP/1.1" 200 989
0:0:0:0:0:0:0:1 - - [05/Feb/2021:09:21:35 +0530] "GET /newstationary-salesmanagementsystem/ProductViewer?action=all HTTP/1.1" 200 989
0:0:0:0:0:0:0:1 - - [05/Feb/2021:09:21:36 +0530] "GET /favicon.ico HTTP/1.1" 404 762
0:0:0:0:0:0:0:1 - - [05/Feb/2021:11:21:08 +0530] "GET /newstationary-salesmanagementsystem/ProductViewer?action=all HTTP/1.1" 200 1007
0:0:0:0:0:0:0:1 - - [05/Feb/2021:11:21:20 +0530] "GET /newstationary-salesmanagementsystem/ProductViewer?action=all HTTP/1.1" 200 1007
0:0:0:0:0:0:0:1 - - [05/Feb/2021:11:43:56 +0530] "GET /newstationary-salesmanagementsystem/ProductViewer?action=all HTTP/1.1" 200 1007
0:0:0:0:0:0:0:1 - - [05/Feb/2021:11:43:58 +0530] "GET /newstationary-salesmanagementsystem/ProductViewer?action=all HTTP/1.1" 200 1007
0:0:0:0:0:0:0:1 - - [05/Feb/2021:11:54:29 +0530] "GET /newstationary-salesmanagementsystem/ProductViewer?action=all HTTP/1.1" 200 1007
0:0:0:0:0:0:0:1 - - [05/Feb/2021:11:54:31 +0530] "GET /newstationary-salesmanagementsystem/ProductViewer?action=all HTTP/1.1" 200 1007
0:0:0:0:0:0:0:1 - - [05/Feb/2021:12:07:21 +0530] "GET /newstationary-salesmanagementsystem/ProductViewer?action=all HTTP/1.1" 200 1021
0:0:0:0:0:0:0:1 - - [05/Feb/2021:12:07:25 +0530] "GET /newstationary-salesmanagementsystem/add-product.jsp HTTP/1.1" 200 1502
0:0:0:0:0:0:0:1 - - [05/Feb/2021:12:07:49 +0530] "GET /newstationary-salesmanagementsystem/productViewer?action=all HTTP/1.1" 404 804
0:0:0:0:0:0:0:1 - - [05/Feb/2021:12:08:50 +0530] "POST /newstationary-salesmanagementsystem/productManager HTTP/1.1" 404 805
0:0:0:0:0:0:0:1 - - [05/Feb/2021:12:10:33 +0530] "GET /newstationary-salesmanagementsystem/add-product.jsp HTTP/1.1" 200 1600
0:0:0:0:0:0:0:1 - - [05/Feb/2021:12:10:36 +0530] "GET /newstationary-salesmanagementsystem/productViewer?action=all HTTP/1.1" 404 804
0:0:0:0:0:0:0:1 - - [05/Feb/2021:12:10:39 +0530] "GET /newstationary-salesmanagementsystem/productViewer?action=all HTTP/1.1" 404 804
0:0:0:0:0:0:0:1 - - [05/Feb/2021:12:10:43 +0530] "GET /newstationary-salesmanagementsystem/productViewer?action=all HTTP/1.1" 404 804
0:0:0:0:0:0:0:1 - - [05/Feb/2021:12:10:48 +0530] "GET /newstationary-salesmanagementsystem/productViewer?action=all HTTP/1.1" 404 804
0:0:0:0:0:0:0:1 - - [05/Feb/2021:12:14:20 +0530] "POST /newstationary-salesmanagementsystem/productManager HTTP/1.1" 404 805
0:0:0:0:0:0:0:1 - - [05/Feb/2021:12:14:39 +0530] "GET /newstationary-salesmanagementsystem/productViewer?action=all HTTP/1.1" 404 804
0:0:0:0:0:0:0:1 - - [05/Feb/2021:12:15:12 +0530] "GET /newstationary-salesmanagementsystem/productViewer?action=all HTTP/1.1" 404 804
0:0:0:0:0:0:0:1 - - [05/Feb/2021:12:28:24 +0530] "GET /newstationary-salesmanagementsystem/add-product.jsp HTTP/1.1" 200 1832
0:0:0:0:0:0:0:1 - - [05/Feb/2021:12:28:28 +0530] "GET /newstationary-salesmanagementsystem/productViewer?action=all HTTP/1.1" 404 804
0:0:0:0:0:0:0:1 - - [05/Feb/2021:12:28:32 +0530] "GET /newstationary-salesmanagementsystem/productViewer?action=all HTTP/1.1" 404 804
0:0:0:0:0:0:0:1 - - [05/Feb/2021:12:29:02 +0530] "POST /newstationary-salesmanagementsystem/productManager HTTP/1.1" 404 805
0:0:0:0:0:0:0:1 - - [05/Feb/2021:12:34:57 +0530] "GET /newstationary-salesmanagementsystem/add-product.jsp HTTP/1.1" 200 1831
0:0:0:0:0:0:0:1 - - [05/Feb/2021:12:35:01 +0530] "GET /newstationary-salesmanagementsystem/productViewer?action=all HTTP/1.1" 404 804
0:0:0:0:0:0:0:1 - - [05/Feb/2021:12:36:07 +0530] "GET /newstationary-salesmanagementsystem/productViewer?action=all HTTP/1.1" 404 804
0:0:0:0:0:0:0:1 - - [05/Feb/2021:13:25:05 +0530] "GET /newstationary-salesmanagementsystem/add-product.jsp HTTP/1.1" 200 1831
0:0:0:0:0:0:0:1 - - [05/Feb/2021:13:25:06 +0530] "GET /newstationary-salesmanagementsystem/add-product.jsp HTTP/1.1" 200 1831
0:0:0:0:0:0:0:1 - - [05/Feb/2021:13:25:07 +0530] "GET /newstationary-salesmanagementsystem/add-product.jsp HTTP/1.1" 200 1831
0:0:0:0:0:0:0:1 - - [05/Feb/2021:13:25:09 +0530] "GET /newstationary-salesmanagementsystem/add-product.jsp HTTP/1.1" 200 1831
0:0:0:0:0:0:0:1 - - [05/Feb/2021:13:25:28 +0530] "GET /newstationary-salesmanagementsystem/productViewer?action=all HTTP/1.1" 404 804
0:0:0:0:0:0:0:1 - - [05/Feb/2021:13:28:11 +0530] "GET /newstationary-salesmanagementsystem/add-product.jsp HTTP/1.1" 200 1845
0:0:0:0:0:0:0:1 - - [05/Feb/2021:13:28:13 +0530] "GET /newstationary-salesmanagementsystem/productViewer?action=all HTTP/1.1" 404 804
0:0:0:0:0:0:0:1 - - [05/Feb/2021:13:28:17 +0530] "GET /newstationary-salesmanagementsystem/search-edit.jsp HTTP/1.1" 200 2210
0:0:0:0:0:0:0:1 - - [05/Feb/2021:13:28:35 +0530] "GET /newstationary-salesmanagementsystem/productViewer?product_id=4 HTTP/1.1" 404 804
0:0:0:0:0:0:0:1 - - [05/Feb/2021:13:28:43 +0530] "POST /newstationary-salesmanagementsystem/productManager HTTP/1.1" 404 805
127.0.0.1 - - [05/Feb/2021:15:59:05 +0530] "GET / HTTP/1.1" 404 751
0:0:0:0:0:0:0:1 - - [05/Feb/2021:15:59:13 +0530] "GET /newstationary-salesmanagementsystem/ HTTP/1.1" 200 52
0:0:0:0:0:0:0:1 - - [05/Feb/2021:15:59:38 +0530] "GET /newstationary-productViewer?action=all HTTP/1.1" 404 778
127.0.0.1 - - [05/Feb/2021:16:05:20 +0530] "GET / HTTP/1.1" 404 751
0:0:0:0:0:0:0:1 - - [05/Feb/2021:16:05:24 +0530] "GET /newstationary-salesmanagementsystem/ HTTP/1.1" 302 -
0:0:0:0:0:0:0:1 - - [05/Feb/2021:16:05:24 +0530] "GET /newstationary-salesmanagementsystem/productViewer?action=all HTTP/1.1" 404 804
0:0:0:0:0:0:0:1 - - [05/Feb/2021:16:05:26 +0530] "GET /newstationary-salesmanagementsystem/productViewer?action=all HTTP/1.1" 404 804
0:0:0:0:0:0:0:1 - - [05/Feb/2021:16:05:33 +0530] "GET /newstationary-salesmanagementsystem/search-edit.jsp HTTP/1.1" 200 2210
0:0:0:0:0:0:0:1 - - [05/Feb/2021:16:05:35 +0530] "GET /newstationary-salesmanagementsystem/productViewer?action=all HTTP/1.1" 404 804
0:0:0:0:0:0:0:1 - - [05/Feb/2021:16:05:37 +0530] "GET /newstationary-salesmanagementsystem/productViewer?action=all HTTP/1.1" 404 804
0:0:0:0:0:0:0:1 - - [05/Feb/2021:16:05:39 +0530] "GET /newstationary-salesmanagementsystem/add-product.jsp HTTP/1.1" 200 1845
0:0:0:0:0:0:0:1 - - [05/Feb/2021:16:05:40 +0530] "GET /newstationary-salesmanagementsystem/productViewer?action=all HTTP/1.1" 404 804
0:0:0:0:0:0:0:1 - - [05/Feb/2021:16:05:42 +0530] "GET /newstationary-salesmanagementsystem/search-edit.jsp HTTP/1.1" 200 2210
0:0:0:0:0:0:0:1 - - [05/Feb/2021:16:05:43 +0530] "GET /newstationary-salesmanagementsystem/add-product.jsp HTTP/1.1" 200 1845
0:0:0:0:0:0:0:1 - - [05/Feb/2021:16:05:44 +0530] "GET /newstationary-salesmanagementsystem/search-edit.jsp HTTP/1.1" 200 2210
0:0:0:0:0:0:0:1 - - [05/Feb/2021:16:05:45 +0530] "GET /newstationary-salesmanagementsystem/productViewer?action=all HTTP/1.1" 404 804
0:0:0:0:0:0:0:1 - - [05/Feb/2021:16:05:48 +0530] "GET /newstationary-salesmanagementsystem/add-product.jsp HTTP/1.1" 200 1845
0:0:0:0:0:0:0:1 - - [05/Feb/2021:16:05:49 +0530] "GET /newstationary-salesmanagementsystem/search-edit.jsp HTTP/1.1" 200 2210
0:0:0:0:0:0:0:1 - - [05/Feb/2021:16:05:51 +0530] "GET /newstationary-salesmanagementsystem/productViewer?action=all HTTP/1.1" 404 804
0:0:0:0:0:0:0:1 - - [05/Feb/2021:16:05:54 +0530] "GET /newstationary-salesmanagementsystem/productViewer?action=all HTTP/1.1" 404 804
0:0:0:0:0:0:0:1 - - [05/Feb/2021:16:06:01 +0530] "GET /newstationary-salesmanagementsystem/ HTTP/1.1" 302 -
0:0:0:0:0:0:0:1 - - [05/Feb/2021:16:06:01 +0530] "GET /newstationary-salesmanagementsystem/productViewer?action=all HTTP/1.1" 404 804
0:0:0:0:0:0:0:1 - - [05/Feb/2021:16:06:06 +0530] "GET /newstationary-salesmanagementsystem/ HTTP/1.1" 302 -
0:0:0:0:0:0:0:1 - - [05/Feb/2021:16:06:06 +0530] "GET /newstationary-salesmanagementsystem/productViewer?action=all HTTP/1.1" 404 804
0:0:0:0:0:0:0:1 - - [05/Feb/2021:16:06:27 +0530] "GET /newstationary-salesmanagementsystem/ HTTP/1.1" 302 -
0:0:0:0:0:0:0:1 - - [05/Feb/2021:16:06:27 +0530] "GET /newstationary-salesmanagementsystem/productViewer?action=all HTTP/1.1" 404 804
127.0.0.1 - - [05/Feb/2021:16:09:41 +0530] "GET / HTTP/1.1" 404 751
0:0:0:0:0:0:0:1 - - [05/Feb/2021:16:09:42 +0530] "GET /newstationary-salesmanagementsystem/ HTTP/1.1" 302 -
0:0:0:0:0:0:0:1 - - [05/Feb/2021:16:09:42 +0530] "GET /newstationary-salesmanagementsystem/productViewer?action=all HTTP/1.1" 404 804
0:0:0:0:0:0:0:1 - - [05/Feb/2021:16:22:26 +0530] "GET /newstationary-salesmanagementsystem/productViewer?action=all HTTP/1.1" 404 804
0:0:0:0:0:0:0:1 - - [05/Feb/2021:16:22:31 +0530] "GET /newstationary-salesmanagementsystem/productViewer?action=all HTTP/1.1" 404 804
0:0:0:0:0:0:0:1 - - [05/Feb/2021:16:22:32 +0530] "GET /newstationary-salesmanagementsystem/productViewer?action=all HTTP/1.1" 404 804
0:0:0:0:0:0:0:1 - - [05/Feb/2021:16:22:36 +0530] "GET /newstationary-salesmanagementsystem/add-product.jsp HTTP/1.1" 200 1845
0:0:0:0:0:0:0:1 - - [05/Feb/2021:16:22:38 +0530] "GET /newstationary-salesmanagementsystem/search-edit.jsp HTTP/1.1" 200 2210
0:0:0:0:0:0:0:1 - - [05/Feb/2021:16:22:39 +0530] "GET /newstationary-salesmanagementsystem/productViewer?action=all HTTP/1.1" 404 804
0:0:0:0:0:0:0:1 - - [05/Feb/2021:16:22:42 +0530] "GET /newstationary-salesmanagementsystem/productViewer?action=all HTTP/1.1" 404 804
0:0:0:0:0:0:0:1 - - [05/Feb/2021:16:22:52 +0530] "GET /newstationary-salesmanagementsystem/add-product.jsp HTTP/1.1" 200 1845
0:0:0:0:0:0:0:1 - - [05/Feb/2021:16:22:55 +0530] "GET /newstationary-salesmanagementsystem/search-edit.jsp HTTP/1.1" 200 2210
0:0:0:0:0:0:0:1 - - [05/Feb/2021:16:22:56 +0530] "GET /newstationary-salesmanagementsystem/add-product.jsp HTTP/1.1" 200 1845
127.0.0.1 - - [05/Feb/2021:16:25:59 +0530] "GET / HTTP/1.1" 404 751
0:0:0:0:0:0:0:1 - - [05/Feb/2021:16:26:00 +0530] "GET /newstationary-salesmanagementsystem/ HTTP/1.1" 302 -
0:0:0:0:0:0:0:1 - - [05/Feb/2021:16:26:00 +0530] "GET /newstationary-salesmanagementsystem/productViewer?action=all HTTP/1.1" 404 804
127.0.0.1 - - [05/Feb/2021:16:31:58 +0530] "GET / HTTP/1.1" 404 751
0:0:0:0:0:0:0:1 - - [05/Feb/2021:16:32:00 +0530] "GET /newstationary-salesmanagementsystem/ HTTP/1.1" 302 -
0:0:0:0:0:0:0:1 - - [05/Feb/2021:16:32:00 +0530] "GET /newstationary-salesmanagementsystem/productViewer?action=all HTTP/1.1" 404 804
0:0:0:0:0:0:0:1 - - [05/Feb/2021:16:32:08 +0530] "GET /newstationary-salesmanagementsystem/ HTTP/1.1" 302 -
0:0:0:0:0:0:0:1 - - [05/Feb/2021:16:32:08 +0530] "GET /newstationary-salesmanagementsystem/productViewer?action=all HTTP/1.1" 404 804
0:0:0:0:0:0:0:1 - - [05/Feb/2021:16:32:25 +0530] "GET /newstationary-salesmanagementsystem/productViewer?action=all HTTP/1.1" 404 804
0:0:0:0:0:0:0:1 - - [05/Feb/2021:16:32:28 +0530] "GET /newstationary-salesmanagementsystem/productViewer?action=all HTTP/1.1" 404 804
127.0.0.1 - - [05/Feb/2021:16:34:43 +0530] "GET / HTTP/1.1" 404 751
0:0:0:0:0:0:0:1 - - [05/Feb/2021:16:40:31 +0530] "GET /newstationary-salesmanagementsystem/productviewer?action=all HTTP/1.1" 404 804
0:0:0:0:0:0:0:1 - - [05/Feb/2021:16:40:34 +0530] "GET /newstationary-salesmanagementsystem/productviewer?action=all HTTP/1.1" 404 804
0:0:0:0:0:0:0:1 - - [05/Feb/2021:16:40:37 +0530] "GET /newstationary-salesmanagementsystem/productviewer?action=all HTTP/1.1" 404 804
0:0:0:0:0:0:0:1 - - [05/Feb/2021:16:40:53 +0530] "GET /newstationary-salesmanagementsystem/productViewer?action=all HTTP/1.1" 404 804
0:0:0:0:0:0:0:1 - - [05/Feb/2021:16:41:02 +0530] "GET /newstationary-salesmanagementsystem/productviewer?action=all HTTP/1.1" 404 804
0:0:0:0:0:0:0:1 - - [05/Feb/2021:16:41:04 +0530] "GET /newstationary-salesmanagementsystem/productviewer?action=all HTTP/1.1" 404 804
0:0:0:0:0:0:0:1 - - [05/Feb/2021:16:41:35 +0530] "GET /newstationary-salesmanagementsystem/ProductViewer?action=all HTTP/1.1" 200 1015
0:0:0:0:0:0:0:1 - - [05/Feb/2021:16:41:35 +0530] "GET /newstationary-salesmanagementsystem/ProductViewer?action=all HTTP/1.1" 200 1015
0:0:0:0:0:0:0:1 - - [05/Feb/2021:16:41:36 +0530] "GET /newstationary-salesmanagementsystem/ProductViewer?action=all HTTP/1.1" 200 1015
0:0:0:0:0:0:0:1 - - [05/Feb/2021:16:41:38 +0530] "GET /newstationary-salesmanagementsystem/add-product.jsp HTTP/1.1" 200 1845
0:0:0:0:0:0:0:1 - - [05/Feb/2021:16:41:40 +0530] "GET /newstationary-salesmanagementsystem/search-edit.jsp HTTP/1.1" 200 2210
0:0:0:0:0:0:0:1 - - [05/Feb/2021:16:41:41 +0530] "GET /newstationary-salesmanagementsystem/productViewer?action=all HTTP/1.1" 404 804
0:0:0:0:0:0:0:1 - - [05/Feb/2021:16:41:49 +0530] "GET /newstationary-salesmanagementsystem/add-product.jsp HTTP/1.1" 200 1845
0:0:0:0:0:0:0:1 - - [05/Feb/2021:16:41:50 +0530] "GET /newstationary-salesmanagementsystem/productViewer?action=all HTTP/1.1" 404 804
0:0:0:0:0:0:0:1 - - [05/Feb/2021:16:41:58 +0530] "GET /newstationary-salesmanagementsystem/ProductViewer?action=all HTTP/1.1" 200 1015
0:0:0:0:0:0:0:1 - - [05/Feb/2021:16:42:42 +0530] "GET /newstationary-salesmanagementsystem/add-product.jsp HTTP/1.1" 200 1845
0:0:0:0:0:0:0:1 - - [05/Feb/2021:16:42:44 +0530] "GET /newstationary-salesmanagementsystem/search-edit.jsp HTTP/1.1" 200 2210
0:0:0:0:0:0:0:1 - - [05/Feb/2021:16:42:45 +0530] "GET /newstationary-salesmanagementsystem/add-product.jsp HTTP/1.1" 200 1845
0:0:0:0:0:0:0:1 - - [05/Feb/2021:16:42:46 +0530] "GET /newstationary-salesmanagementsystem/productViewer?action=all HTTP/1.1" 404 804
0:0:0:0:0:0:0:1 - - [05/Feb/2021:16:43:38 +0530] "GET /newstationary-salesmanagementsystem/productViewer?action=all HTTP/1.1" 404 804
0:0:0:0:0:0:0:1 - - [05/Feb/2021:16:43:41 +0530] "GET /newstationary-salesmanagementsystem/productViewer?action=all HTTP/1.1" 404 804
0:0:0:0:0:0:0:1 - - [05/Feb/2021:16:43:58 +0530] "GET /newstationary-salesmanagementsystem/ProductViewer?action=all HTTP/1.1" 200 1015
0:0:0:0:0:0:0:1 - - [05/Feb/2021:16:44:02 +0530] "GET /newstationary-salesmanagementsystem/add-product.jsp HTTP/1.1" 200 1845
0:0:0:0:0:0:0:1 - - [05/Feb/2021:16:44:04 +0530] "GET /newstationary-salesmanagementsystem/search-edit.jsp HTTP/1.1" 200 2210
0:0:0:0:0:0:0:1 - - [05/Feb/2021:16:44:05 +0530] "GET /newstationary-salesmanagementsystem/ProductViewer?action=all HTTP/1.1" 200 1015
0:0:0:0:0:0:0:1 - - [05/Feb/2021:16:44:06 +0530] "GET /newstationary-salesmanagementsystem/add-product.jsp HTTP/1.1" 200 1845
0:0:0:0:0:0:0:1 - - [05/Feb/2021:16:44:10 +0530] "GET /newstationary-salesmanagementsystem/productViewer?action=all HTTP/1.1" 404 804
0:0:0:0:0:0:0:1 - - [05/Feb/2021:16:44:11 +0530] "GET /newstationary-salesmanagementsystem/productViewer?action=all HTTP/1.1" 404 804
0:0:0:0:0:0:0:1 - - [05/Feb/2021:16:44:12 +0530] "GET /newstationary-salesmanagementsystem/productViewer?action=all HTTP/1.1" 404 804
0:0:0:0:0:0:0:1 - - [05/Feb/2021:16:44:17 +0530] "GET /newstationary-salesmanagementsystem/ProductViewer?action=all HTTP/1.1" 200 1015
0:0:0:0:0:0:0:1 - - [05/Feb/2021:16:44:26 +0530] "GET /newstationary-salesmanagementsystem/ProductViewer?action=all HTTP/1.1" 200 1015
0:0:0:0:0:0:0:1 - - [05/Feb/2021:16:44:29 +0530] "GET /newstationary-salesmanagementsystem/add-product.jsp HTTP/1.1" 200 1845
0:0:0:0:0:0:0:1 - - [05/Feb/2021:16:44:31 +0530] "GET /newstationary-salesmanagementsystem/search-edit.jsp HTTP/1.1" 200 2210
0:0:0:0:0:0:0:1 - - [05/Feb/2021:16:44:47 +0530] "GET /newstationary-salesmanagementsystem/productViewer?product_id=3 HTTP/1.1" 404 804
0:0:0:0:0:0:0:1 - - [05/Feb/2021:16:45:01 +0530] "POST /newstationary-salesmanagementsystem/productManager HTTP/1.1" 404 805
0:0:0:0:0:0:0:1 - - [05/Feb/2021:16:45:05 +0530] "GET /newstationary-salesmanagementsystem/add-product.jsp HTTP/1.1" 200 1845
0:0:0:0:0:0:0:1 - - [05/Feb/2021:16:45:08 +0530] "POST /newstationary-salesmanagementsystem/productManager HTTP/1.1" 404 805
0:0:0:0:0:0:0:1 - - [05/Feb/2021:16:46:11 +0530] "POST /newstationary-salesmanagementsystem/productManager HTTP/1.1" 404 805
0:0:0:0:0:0:0:1 - - [05/Feb/2021:16:48:52 +0530] "GET /newstationary-salesmanagementsystem/ProductViewer?action=all HTTP/1.1" 200 1015
0:0:0:0:0:0:0:1 - - [05/Feb/2021:16:48:53 +0530] "GET /newstationary-salesmanagementsystem/add-product.jsp HTTP/1.1" 200 1845
0:0:0:0:0:0:0:1 - - [05/Feb/2021:16:48:54 +0530] "GET /newstationary-salesmanagementsystem/search-edit.jsp HTTP/1.1" 200 2210
0:0:0:0:0:0:0:1 - - [05/Feb/2021:16:52:21 +0530] "GET /newstationary-salesmanagementsystem/add-product.jsp HTTP/1.1" 200 1845
0:0:0:0:0:0:0:1 - - [05/Feb/2021:16:52:23 +0530] "GET /newstationary-salesmanagementsystem/ProductViewer?action=all HTTP/1.1" 200 1015
0:0:0:0:0:0:0:1 - - [05/Feb/2021:17:15:32 +0530] "GET /newstationary-salesmanagementsystem/add-product.jsp HTTP/1.1" 200 1845
0:0:0:0:0:0:0:1 - - [05/Feb/2021:17:15:34 +0530] "GET /newstationary-salesmanagementsystem/search-edit.jsp HTTP/1.1" 200 2210
0:0:0:0:0:0:0:1 - - [05/Feb/2021:17:15:37 +0530] "GET /newstationary-salesmanagementsystem/productViewer?product_id=3 HTTP/1.1" 404 804
0:0:0:0:0:0:0:1 - - [05/Feb/2021:17:24:53 +0530] "GET /newstationary-salesmanagementsystem/ProductViewer?action=all HTTP/1.1" 200 1015
0:0:0:0:0:0:0:1 - - [05/Feb/2021:17:24:54 +0530] "GET /newstationary-salesmanagementsystem/add-product.jsp HTTP/1.1" 200 1845
0:0:0:0:0:0:0:1 - - [05/Feb/2021:17:24:57 +0530] "GET /newstationary-salesmanagementsystem/ProductViewer?action=all HTTP/1.1" 200 1015
0:0:0:0:0:0:0:1 - - [05/Feb/2021:17:29:37 +0530] "GET /newstationary-salesmanagementsystem/ProductViewer?action=all HTTP/1.1" 200 1015
0:0:0:0:0:0:0:1 - - [05/Feb/2021:17:29:40 +0530] "GET /newstationary-salesmanagementsystem/ProductViewer?action=all HTTP/1.1" 200 1015
0:0:0:0:0:0:0:1 - - [05/Feb/2021:17:30:02 +0530] "GET /newstationary-salesmanagementsystem/ProductViewer?action=all HTTP/1.1" 200 1015
0:0:0:0:0:0:0:1 - - [05/Feb/2021:17:30:03 +0530] "GET /newstationary-salesmanagementsystem/ProductViewer?action=all HTTP/1.1" 200 1015
0:0:0:0:0:0:0:1 - - [05/Feb/2021:17:30:54 +0530] "GET /newstationary-salesmanagementsystem/add-product.jsp HTTP/1.1" 200 1845
0:0:0:0:0:0:0:1 - - [05/Feb/2021:17:30:55 +0530] "GET /newstationary-salesmanagementsystem/search-edit.jsp HTTP/1.1" 200 2210
0:0:0:0:0:0:0:1 - - [05/Feb/2021:17:30:56 +0530] "GET /newstationary-salesmanagementsystem/ProductViewer?action=all HTTP/1.1" 200 1015
0:0:0:0:0:0:0:1 - - [05/Feb/2021:17:46:50 +0530] "GET /newstationary-salesmanagementsystem/ProductViewer?action=all HTTP/1.1" 200 1015
0:0:0:0:0:0:0:1 - - [05/Feb/2021:17:46:52 +0530] "GET /newstationary-salesmanagementsystem/ProductViewer?action=all HTTP/1.1" 200 1015
0:0:0:0:0:0:0:1 - - [05/Feb/2021:17:46:56 +0530] "GET /newstationary-salesmanagementsystem/ProductViewer?action=all HTTP/1.1" 200 1015
0:0:0:0:0:0:0:1 - - [05/Feb/2021:17:46:57 +0530] "GET /newstationary-salesmanagementsystem/ProductViewer?action=all HTTP/1.1" 200 1015
0:0:0:0:0:0:0:1 - - [05/Feb/2021:17:46:58 +0530] "GET /newstationary-salesmanagementsystem/ProductViewer?action=all HTTP/1.1" 200 1015
0:0:0:0:0:0:0:1 - - [05/Feb/2021:17:46:59 +0530] "GET /newstationary-salesmanagementsystem/add-product.jsp HTTP/1.1" 200 1845
0:0:0:0:0:0:0:1 - - [05/Feb/2021:17:47:02 +0530] "GET /newstationary-salesmanagementsystem/search-edit.jsp HTTP/1.1" 200 2210
0:0:0:0:0:0:0:1 - - [05/Feb/2021:17:47:05 +0530] "GET /newstationary-salesmanagementsystem/productViewer?product_id=3 HTTP/1.1" 404 804
0:0:0:0:0:0:0:1 - - [05/Feb/2021:17:49:30 +0530] "GET /newstationary-salesmanagementsystem/ProductViewer?action=all HTTP/1.1" 200 1015
0:0:0:0:0:0:0:1 - - [05/Feb/2021:17:49:31 +0530] "GET /newstationary-salesmanagementsystem/ProductViewer?action=all HTTP/1.1" 200 1015
0:0:0:0:0:0:0:1 - - [05/Feb/2021:17:49:32 +0530] "GET /newstationary-salesmanagementsystem/ProductViewer?action=all HTTP/1.1" 200 1015
0:0:0:0:0:0:0:1 - - [05/Feb/2021:17:49:33 +0530] "GET /newstationary-salesmanagementsystem/ProductViewer?action=all HTTP/1.1" 200 1015
127.0.0.1 - - [05/Feb/2021:17:51:50 +0530] "GET / HTTP/1.1" 404 751
0:0:0:0:0:0:0:1 - - [05/Feb/2021:17:51:51 +0530] "GET /newstationary-salesmanagementsystem/WEB-INF/classes/com/salesmanagementsystem/dao/MySQLConnector.java HTTP/1.1" 404 682
127.0.0.1 - - [05/Feb/2021:17:58:50 +0530] "GET / HTTP/1.1" 404 751
0:0:0:0:0:0:0:1 - - [05/Feb/2021:17:58:53 +0530] "GET /newstationary-salesmanagementsystem/ HTTP/1.1" 302 -
0:0:0:0:0:0:0:1 - - [05/Feb/2021:17:58:53 +0530] "GET /newstationary-salesmanagementsystem/ProductViewer?action=all HTTP/1.1" 200 1015
0:0:0:0:0:0:0:1 - - [05/Feb/2021:17:58:56 +0530] "GET /newstationary-salesmanagementsystem/add-product.jsp HTTP/1.1" 200 1845
0:0:0:0:0:0:0:1 - - [05/Feb/2021:17:58:57 +0530] "GET /newstationary-salesmanagementsystem/search-edit.jsp HTTP/1.1" 200 2210
0:0:0:0:0:0:0:1 - - [05/Feb/2021:17:58:59 +0530] "GET /newstationary-salesmanagementsystem/ProductViewer?action=all HTTP/1.1" 200 1015
0:0:0:0:0:0:0:1 - - [05/Feb/2021:17:59:10 +0530] "GET /newstationary-salesmanagementsystem/ProductViewer?action=all HTTP/1.1" 200 1015
0:0:0:0:0:0:0:1 - - [05/Feb/2021:17:59:15 +0530] "GET /newstationary-salesmanagementsystem/add-product.jsp HTTP/1.1" 200 1845
0:0:0:0:0:0:0:1 - - [05/Feb/2021:17:59:16 +0530] "GET /newstationary-salesmanagementsystem/search-edit.jsp HTTP/1.1" 200 2210
0:0:0:0:0:0:0:1 - - [05/Feb/2021:17:59:17 +0530] "GET /newstationary-salesmanagementsystem/ProductViewer?action=all HTTP/1.1" 200 1015
0:0:0:0:0:0:0:1 - - [05/Feb/2021:18:33:19 +0530] "GET /newstationary-salesmanagementsystem/add-product.jsp HTTP/1.1" 200 1845
0:0:0:0:0:0:0:1 - - [05/Feb/2021:18:33:21 +0530] "GET /newstationary-salesmanagementsystem/search-edit.jsp HTTP/1.1" 200 2210
0:0:0:0:0:0:0:1 - - [05/Feb/2021:18:33:24 +0530] "GET /newstationary-salesmanagementsystem/productViewer?product_id=3 HTTP/1.1" 404 804
0:0:0:0:0:0:0:1 - - [05/Feb/2021:18:33:32 +0530] "GET /newstationary-salesmanagementsystem/ProductViewer?action=all HTTP/1.1" 200 1015
0:0:0:0:0:0:0:1 - - [05/Feb/2021:18:34:27 +0530] "GET /newstationary-salesmanagementsystem/add-product.jsp HTTP/1.1" 200 1845
0:0:0:0:0:0:0:1 - - [05/Feb/2021:18:34:30 +0530] "GET /newstationary-salesmanagementsystem/search-edit.jsp HTTP/1.1" 200 2210
0:0:0:0:0:0:0:1 - - [05/Feb/2021:18:34:36 +0530] "GET /newstationary-salesmanagementsystem/add-product.jsp HTTP/1.1" 200 1845
0:0:0:0:0:0:0:1 - - [05/Feb/2021:18:34:37 +0530] "GET /newstationary-salesmanagementsystem/ProductViewer?action=all HTTP/1.1" 200 1015
0:0:0:0:0:0:0:1 - - [05/Feb/2021:18:34:38 +0530] "GET /newstationary-salesmanagementsystem/add-product.jsp HTTP/1.1" 200 1845
0:0:0:0:0:0:0:1 - - [05/Feb/2021:18:34:39 +0530] "GET /newstationary-salesmanagementsystem/search-edit.jsp HTTP/1.1" 200 2210
0:0:0:0:0:0:0:1 - - [05/Feb/2021:18:34:48 +0530] "GET /newstationary-salesmanagementsystem/ProductViewer?action=all HTTP/1.1" 200 1015
0:0:0:0:0:0:0:1 - - [05/Feb/2021:18:38:09 +0530] "GET /newstationary-salesmanagementsystem/add-product.jsp HTTP/1.1" 200 1845
0:0:0:0:0:0:0:1 - - [05/Feb/2021:18:38:12 +0530] "POST /newstationary-salesmanagementsystem/productManager HTTP/1.1" 404 805
0:0:0:0:0:0:0:1 - - [05/Feb/2021:18:51:38 +0530] "GET /newstationary-salesmanagementsystem/ProductViewer?action=all HTTP/1.1" 200 1015
0:0:0:0:0:0:0:1 - - [05/Feb/2021:18:51:39 +0530] "GET /newstationary-salesmanagementsystem/ProductViewer?action=all HTTP/1.1" 200 1015
0:0:0:0:0:0:0:1 - - [05/Feb/2021:18:51:40 +0530] "GET /newstationary-salesmanagementsystem/ProductViewer?action=all HTTP/1.1" 200 1015
0:0:0:0:0:0:0:1 - - [05/Feb/2021:18:51:41 +0530] "GET /newstationary-salesmanagementsystem/ProductViewer?action=all HTTP/1.1" 200 1015
0:0:0:0:0:0:0:1 - - [05/Feb/2021:18:51:51 +0530] "GET /newstationary-salesmanagementsystem/add-product.jsp HTTP/1.1" 200 1862
0:0:0:0:0:0:0:1 - - [05/Feb/2021:18:51:55 +0530] "POST /newstationary-salesmanagementsystem/productManager HTTP/1.1" 404 805
0:0:0:0:0:0:0:1 - - [05/Feb/2021:19:13:11 +0530] "GET /newstationary-salesmanagementsystem/add-product.jsp HTTP/1.1" 200 1862
0:0:0:0:0:0:0:1 - - [05/Feb/2021:19:13:13 +0530] "GET /newstationary-salesmanagementsystem/add-product.jsp HTTP/1.1" 200 1862
0:0:0:0:0:0:0:1 - - [05/Feb/2021:19:13:14 +0530] "GET /newstationary-salesmanagementsystem/add-product.jsp HTTP/1.1" 200 1862
0:0:0:0:0:0:0:1 - - [05/Feb/2021:19:13:59 +0530] "POST /newstationary-salesmanagementsystem/productManager HTTP/1.1" 404 805
0:0:0:0:0:0:0:1 - - [05/Feb/2021:19:29:37 +0530] "POST /newstationary-salesmanagementsystem/productManager HTTP/1.1" 404 805
0:0:0:0:0:0:0:1 - - [05/Feb/2021:19:30:02 +0530] "POST /newstationary-salesmanagementsystem/productManager HTTP/1.1" 404 805
0:0:0:0:0:0:0:1 - - [05/Feb/2021:19:41:52 +0530] "POST /newstationary-salesmanagementsystem/productManager HTTP/1.1" 404 805
0:0:0:0:0:0:0:1 - - [05/Feb/2021:19:48:26 +0530] "GET /newstationary-salesmanagementsystem/ProductViewer?action=all HTTP/1.1" 200 1015
0:0:0:0:0:0:0:1 - - [05/Feb/2021:19:49:53 +0530] "GET /newstationary-salesmanagementsystem/ProductViewer?action=all HTTP/1.1" 404 682
0:0:0:0:0:0:0:1 - - [05/Feb/2021:19:49:55 +0530] "GET /newstationary-salesmanagementsystem/ProductViewer?action=all HTTP/1.1" 404 682
0:0:0:0:0:0:0:1 - - [05/Feb/2021:19:49:58 +0530] "GET /newstationary-salesmanagementsystem/ProductViewer?action=all HTTP/1.1" 404 682
0:0:0:0:0:0:0:1 - - [05/Feb/2021:19:50:03 +0530] "GET /newstationary-salesmanagementsystem/ProductViewer?action=all HTTP/1.1" 404 682
0:0:0:0:0:0:0:1 - - [05/Feb/2021:19:50:18 +0530] "GET /newstationary-salesmanagementsystem/search-edit.jsp HTTP/1.1" 404 682
0:0:0:0:0:0:0:1 - - [05/Feb/2021:19:50:46 +0530] "GET /newstationary-salesmanagementsystem/add-product.jsp HTTP/1.1" 404 682
0:0:0:0:0:0:0:1 - - [05/Feb/2021:19:51:09 +0530] "GET /newstationary-salesmanagementsystem/add-product.jsp HTTP/1.1" 404 682
0:0:0:0:0:0:0:1 - - [05/Feb/2021:19:51:10 +0530] "GET /newstationary-salesmanagementsystem/add-product.jsp HTTP/1.1" 404 682
0:0:0:0:0:0:0:1 - - [05/Feb/2021:19:51:14 +0530] "GET /newstationary-salesmanagementsystem/add-product.jsp HTTP/1.1" 404 682
0:0:0:0:0:0:0:1 - - [05/Feb/2021:19:51:15 +0530] "GET /newstationary-salesmanagementsystem/add-product.jsp HTTP/1.1" 404 682
0:0:0:0:0:0:0:1 - - [05/Feb/2021:19:52:31 +0530] "GET /newstationary-salesmanagementsystem/ProductViewer?action=all HTTP/1.1" 404 682
0:0:0:0:0:0:0:1 - - [05/Feb/2021:19:52:32 +0530] "GET /newstationary-salesmanagementsystem/ProductViewer?action=all HTTP/1.1" 404 682
0:0:0:0:0:0:0:1 - - [05/Feb/2021:19:52:32 +0530] "GET /newstationary-salesmanagementsystem/ProductViewer?action=all HTTP/1.1" 404 682
0:0:0:0:0:0:0:1 - - [05/Feb/2021:19:52:33 +0530] "GET /newstationary-salesmanagementsystem/ProductViewer?action=all HTTP/1.1" 404 682
0:0:0:0:0:0:0:1 - - [05/Feb/2021:19:52:33 +0530] "GET /newstationary-salesmanagementsystem/ProductViewer?action=all HTTP/1.1" 404 682
127.0.0.1 - - [05/Feb/2021:19:53:24 +0530] "GET / HTTP/1.1" 404 751
0:0:0:0:0:0:0:1 - - [05/Feb/2021:19:53:25 +0530] "GET /newstationary-salesmanagementsystem/ HTTP/1.1" 302 -
0:0:0:0:0:0:0:1 - - [05/Feb/2021:19:53:26 +0530] "GET /newstationary-salesmanagementsystem/ProductViewer?action=all HTTP/1.1" 200 1015
0:0:0:0:0:0:0:1 - - [05/Feb/2021:19:53:42 +0530] "GET /newstationary-salesmanagementsystem/ProductViewer?action=all HTTP/1.1" 200 1015
0:0:0:0:0:0:0:1 - - [05/Feb/2021:19:53:50 +0530] "GET /newstationary-salesmanagementsystem/add-product.jsp HTTP/1.1" 200 1845
0:0:0:0:0:0:0:1 - - [05/Feb/2021:19:53:53 +0530] "GET /newstationary-salesmanagementsystem/search-edit.jsp HTTP/1.1" 200 2210
0:0:0:0:0:0:0:1 - - [05/Feb/2021:19:53:58 +0530] "GET /newstationary-salesmanagementsystem/add-product.jsp HTTP/1.1" 200 1845
0:0:0:0:0:0:0:1 - - [05/Feb/2021:19:54:00 +0530] "POST /newstationary-salesmanagementsystem/productManager HTTP/1.1" 404 805
0:0:0:0:0:0:0:1 - - [05/Feb/2021:19:54:09 +0530] "POST /newstationary-salesmanagementsystem/productManager HTTP/1.1" 404 805
0:0:0:0:0:0:0:1 - - [05/Feb/2021:19:56:24 +0530] "GET /newstationary-salesmanagementsystem/add-product.jsp HTTP/1.1" 200 1845
0:0:0:0:0:0:0:1 - - [05/Feb/2021:19:56:29 +0530] "POST /newstationary-salesmanagementsystem/productManager HTTP/1.1" 404 805
0:0:0:0:0:0:0:1 - - [05/Feb/2021:19:56:47 +0530] "GET /newstationary-salesmanagementsystem/ProductViewer?action=all HTTP/1.1" 200 1015
0:0:0:0:0:0:0:1 - - [05/Feb/2021:19:56:50 +0530] "GET /newstationary-salesmanagementsystem/ProductViewer?action=all HTTP/1.1" 200 1015
0:0:0:0:0:0:0:1 - - [05/Feb/2021:19:56:51 +0530] "GET /newstationary-salesmanagementsystem/add-product.jsp HTTP/1.1" 200 1845
0:0:0:0:0:0:0:1 - - [05/Feb/2021:19:56:56 +0530] "POST /newstationary-salesmanagementsystem/productManager HTTP/1.1" 404 805
0:0:0:0:0:0:0:1 - - [05/Feb/2021:19:57:03 +0530] "GET /newstationary-salesmanagementsystem/ProductViewer?action=all HTTP/1.1" 200 1015
0:0:0:0:0:0:0:1 - - [05/Feb/2021:19:58:01 +0530] "GET /newstationary-salesmanagementsystem/ProductViewer?action=all HTTP/1.1" 200 982
0:0:0:0:0:0:0:1 - - [05/Feb/2021:19:58:01 +0530] "GET /newstationary-salesmanagementsystem/ProductViewer?action=all HTTP/1.1" 200 982
0:0:0:0:0:0:0:1 - - [05/Feb/2021:19:59:23 +0530] "GET /newstationary-salesmanagementsystem/ProductViewer?action=all HTTP/1.1" 200 1015
0:0:0:0:0:0:0:1 - - [05/Feb/2021:20:04:26 +0530] "GET /newstationary-salesmanagementsystem/ProductViewer?action=all HTTP/1.1" 404 682
0:0:0:0:0:0:0:1 - - [05/Feb/2021:20:04:37 +0530] "GET /newstationary-salesmanagementsystem/ProductViewer?action=all HTTP/1.1" 404 682
0:0:0:0:0:0:0:1 - - [05/Feb/2021:20:07:14 +0530] "GET /newstationary-salesmanagementsystem/ProductViewer?action=all HTTP/1.1" 404 682
0:0:0:0:0:0:0:1 - - [05/Feb/2021:20:07:16 +0530] "GET /newstationary-salesmanagementsystem/ProductViewer?action=all HTTP/1.1" 404 682
0:0:0:0:0:0:0:1 - - [05/Feb/2021:20:07:16 +0530] "GET /newstationary-salesmanagementsystem/ProductViewer?action=all HTTP/1.1" 404 682
0:0:0:0:0:0:0:1 - - [05/Feb/2021:20:07:16 +0530] "GET /newstationary-salesmanagementsystem/ProductViewer?action=all HTTP/1.1" 404 682
0:0:0:0:0:0:0:1 - - [05/Feb/2021:20:07:17 +0530] "GET /newstationary-salesmanagementsystem/ProductViewer?action=all HTTP/1.1" 404 682
127.0.0.1 - - [05/Feb/2021:20:15:50 +0530] "GET / HTTP/1.1" 404 751
127.0.0.1 - - [05/Feb/2021:20:15:52 +0530] "GET /newstationary-salesmanagementsystem/ HTTP/1.1" 302 -
127.0.0.1 - - [05/Feb/2021:20:15:52 +0530] "GET /newstationary-salesmanagementsystem/ProductViewer?action=all HTTP/1.1" 200 1015
127.0.0.1 - - [05/Feb/2021:20:15:57 +0530] "GET /newstationary-salesmanagementsystem/add-product.jsp HTTP/1.1" 200 1845
127.0.0.1 - - [05/Feb/2021:20:16:08 +0530] "POST /newstationary-salesmanagementsystem/productManager HTTP/1.1" 404 805
127.0.0.1 - - [05/Feb/2021:20:21:37 +0530] "GET / HTTP/1.1" 404 751
0:0:0:0:0:0:0:1 - - [05/Feb/2021:20:21:39 +0530] "GET /newstationary-salesmanagementsystem/ HTTP/1.1" 302 -
0:0:0:0:0:0:0:1 - - [05/Feb/2021:20:21:39 +0530] "GET /newstationary-salesmanagementsystem/ProductViewer?action=all HTTP/1.1" 200 1015
0:0:0:0:0:0:0:1 - - [05/Feb/2021:20:21:43 +0530] "GET /newstationary-salesmanagementsystem/add-product.jsp HTTP/1.1" 200 1845
0:0:0:0:0:0:0:1 - - [05/Feb/2021:20:21:45 +0530] "GET /newstationary-salesmanagementsystem/search-edit.jsp HTTP/1.1" 200 2210
0:0:0:0:0:0:0:1 - - [05/Feb/2021:20:22:26 +0530] "GET /newstationary-salesmanagementsystem/productViewer?product_id= HTTP/1.1" 404 804
0:0:0:0:0:0:0:1 - - [05/Feb/2021:20:27:52 +0530] "POST /newstationary-salesmanagementsystem/productManager HTTP/1.1" 404 682
0:0:0:0:0:0:0:1 - - [05/Feb/2021:20:27:53 +0530] "POST /newstationary-salesmanagementsystem/productManager HTTP/1.1" 404 682
0:0:0:0:0:0:0:1 - - [05/Feb/2021:20:28:23 +0530] "POST /newstationary-salesmanagementsystem/productManager HTTP/1.1" 404 682
0:0:0:0:0:0:0:1 - - [05/Feb/2021:20:28:25 +0530] "POST /newstationary-salesmanagementsystem/productManager HTTP/1.1" 404 682
0:0:0:0:0:0:0:1 - - [05/Feb/2021:20:28:26 +0530] "POST /newstationary-salesmanagementsystem/productManager HTTP/1.1" 404 682
0:0:0:0:0:0:0:1 - - [05/Feb/2021:20:29:19 +0530] "POST /newstationary-salesmanagementsystem/productManager HTTP/1.1" 404 682
0:0:0:0:0:0:0:1 - - [05/Feb/2021:20:29:36 +0530] "GET /newstationary-salesmanagementsystem/ProductManager HTTP/1.1" 404 682
0:0:0:0:0:0:0:1 - - [05/Feb/2021:20:29:38 +0530] "GET /newstationary-salesmanagementsystem/ProductManager HTTP/1.1" 404 682
0:0:0:0:0:0:0:1 - - [05/Feb/2021:20:29:52 +0530] "GET /newstationary-salesmanagementsystem/ProductManager/add-product.jsp HTTP/1.1" 404 682
0:0:0:0:0:0:0:1 - - [05/Feb/2021:20:29:55 +0530] "GET /newstationary-salesmanagementsystem/ProductManager/add-product.jsp HTTP/1.1" 404 682
0:0:0:0:0:0:0:1 - - [05/Feb/2021:20:29:57 +0530] "GET /newstationary-salesmanagementsystem/ProductManager/add-product.jsp HTTP/1.1" 404 682
0:0:0:0:0:0:0:1 - - [05/Feb/2021:20:29:58 +0530] "GET /newstationary-salesmanagementsystem/ProductManager/add-product.jsp HTTP/1.1" 404 682
0:0:0:0:0:0:0:1 - - [05/Feb/2021:20:30:54 +0530] "GET /newstationary-salesmanagementsystem/ProductManager/add-product.jsp HTTP/1.1" 404 682
0:0:0:0:0:0:0:1 - - [05/Feb/2021:20:30:56 +0530] "GET /newstationary-salesmanagementsystem/ProductManager/add-product.jsp HTTP/1.1" 404 682
0:0:0:0:0:0:0:1 - - [05/Feb/2021:20:30:57 +0530] "GET /newstationary-salesmanagementsystem/ProductManager/add-product.jsp HTTP/1.1" 404 682
0:0:0:0:0:0:0:1 - - [05/Feb/2021:20:30:58 +0530] "GET /newstationary-salesmanagementsystem/ProductManager/add-product.jsp HTTP/1.1" 404 682
0:0:0:0:0:0:0:1 - - [05/Feb/2021:20:31:29 +0530] "GET /newstationary-salesmanagementsystem/ProductManager/add-product.jsp HTTP/1.1" 404 682
0:0:0:0:0:0:0:1 - - [05/Feb/2021:20:31:45 +0530] "GET /newstationary-salesmanagementsystem/productManager HTTP/1.1" 404 682
0:0:0:0:0:0:0:1 - - [05/Feb/2021:20:31:47 +0530] "GET /newstationary-salesmanagementsystem/productManager HTTP/1.1" 404 682
0:0:0:0:0:0:0:1 - - [05/Feb/2021:20:32:09 +0530] "GET /newstationary-salesmanagementsystem/productManager/add-product.jsp HTTP/1.1" 404 682
0:0:0:0:0:0:0:1 - - [05/Feb/2021:20:32:12 +0530] "GET /newstationary-salesmanagementsystem/productManager/add-product.jsp HTTP/1.1" 404 682
0:0:0:0:0:0:0:1 - - [05/Feb/2021:20:32:14 +0530] "GET /newstationary-salesmanagementsystem/productManager/add-product.jsp HTTP/1.1" 404 682
0:0:0:0:0:0:0:1 - - [05/Feb/2021:20:32:29 +0530] "GET /newstationary-salesmanagementsystem/productmanager/add-product.jsp HTTP/1.1" 404 682
0:0:0:0:0:0:0:1 - - [05/Feb/2021:20:39:40 +0530] "GET /newstationary-salesmanagementsystem/productmanager/add-product.jsp HTTP/1.1" 404 682
0:0:0:0:0:0:0:1 - - [05/Feb/2021:20:39:42 +0530] "GET /newstationary-salesmanagementsystem/productmanager/add-product.jsp HTTP/1.1" 404 682
0:0:0:0:0:0:0:1 - - [05/Feb/2021:20:39:43 +0530] "GET /newstationary-salesmanagementsystem/productmanager/add-product.jsp HTTP/1.1" 404 682
0:0:0:0:0:0:0:1 - - [05/Feb/2021:20:39:43 +0530] "GET /newstationary-salesmanagementsystem/productmanager/add-product.jsp HTTP/1.1" 404 682
0:0:0:0:0:0:0:1 - - [05/Feb/2021:20:39:45 +0530] "GET /newstationary-salesmanagementsystem/productmanager/add-product.jsp HTTP/1.1" 404 682
0:0:0:0:0:0:0:1 - - [05/Feb/2021:20:39:46 +0530] "GET /newstationary-salesmanagementsystem/productmanager/add-product.jsp HTTP/1.1" 404 682
0:0:0:0:0:0:0:1 - - [05/Feb/2021:20:39:47 +0530] "GET /newstationary-salesmanagementsystem/productmanager/add-product.jsp HTTP/1.1" 404 682
0:0:0:0:0:0:0:1 - - [05/Feb/2021:20:39:58 +0530] "GET /newstationary-salesmanagementsystem/ProductViewer/*?action=all HTTP/1.1" 404 682
127.0.0.1 - - [05/Feb/2021:20:40:43 +0530] "GET / HTTP/1.1" 404 751
0:0:0:0:0:0:0:1 - - [05/Feb/2021:20:40:45 +0530] "GET /newstationary-salesmanagementsystem/ HTTP/1.1" 302 -
0:0:0:0:0:0:0:1 - - [05/Feb/2021:20:40:45 +0530] "GET /newstationary-salesmanagementsystem/ProductViewer?action=all HTTP/1.1" 200 1015
0:0:0:0:0:0:0:1 - - [05/Feb/2021:20:40:48 +0530] "GET /newstationary-salesmanagementsystem/add-product.jsp HTTP/1.1" 200 1845
0:0:0:0:0:0:0:1 - - [05/Feb/2021:20:40:51 +0530] "GET /newstationary-salesmanagementsystem/search-edit.jsp HTTP/1.1" 200 2210
0:0:0:0:0:0:0:1 - - [05/Feb/2021:20:40:53 +0530] "GET /newstationary-salesmanagementsystem/add-product.jsp HTTP/1.1" 200 1845
0:0:0:0:0:0:0:1 - - [05/Feb/2021:20:40:55 +0530] "GET /newstationary-salesmanagementsystem/ProductViewer?action=all HTTP/1.1" 200 1015
0:0:0:0:0:0:0:1 - - [05/Feb/2021:20:41:42 +0530] "GET /newstationary-salesmanagementsystem/add-product.jsp HTTP/1.1" 200 1845
0:0:0:0:0:0:0:1 - - [05/Feb/2021:20:41:45 +0530] "POST /newstationary-salesmanagementsystem/productManager HTTP/1.1" 404 805
0:0:0:0:0:0:0:1 - - [05/Feb/2021:20:42:11 +0530] "GET /newstationary-salesmanagementsystem/add-product.jsp HTTP/1.1" 200 1845
0:0:0:0:0:0:0:1 - - [05/Feb/2021:20:42:21 +0530] "POST /newstationary-salesmanagementsystem/productManager HTTP/1.1" 404 805
0:0:0:0:0:0:0:1 - - [05/Feb/2021:20:45:16 +0530] "GET /newstationary-salesmanagementsystem/add-product.jsp HTTP/1.1" 200 1845
0:0:0:0:0:0:0:1 - - [05/Feb/2021:20:45:19 +0530] "GET /newstationary-salesmanagementsystem/ProductViewer?action=all HTTP/1.1" 200 1015
0:0:0:0:0:0:0:1 - - [05/Feb/2021:20:45:40 +0530] "GET /newstationary-salesmanagementsystem/add-product.jsp HTTP/1.1" 200 1845
0:0:0:0:0:0:0:1 - - [05/Feb/2021:20:45:45 +0530] "POST /newstationary-salesmanagementsystem/productManager HTTP/1.1" 404 805
0:0:0:0:0:0:0:1 - - [05/Feb/2021:20:46:14 +0530] "POST /newstationary-salesmanagementsystem/productManager HTTP/1.1" 404 805
0:0:0:0:0:0:0:1 - - [05/Feb/2021:20:59:05 +0530] "GET /newstationary-salesmanagementsystem/ProductViewer?action=all HTTP/1.1" 200 1015
0:0:0:0:0:0:0:1 - - [05/Feb/2021:20:59:49 +0530] "GET /newstationary-salesmanagementsystem/add-product.jsp HTTP/1.1" 200 1845
0:0:0:0:0:0:0:1 - - [05/Feb/2021:21:01:05 +0530] "GET /newstationary-salesmanagementsystem/ProductViewer?action=all HTTP/1.1" 200 1015
0:0:0:0:0:0:0:1 - - [05/Feb/2021:21:01:17 +0530] "GET /newstationary-salesmanagementsystem/add-product.jsp HTTP/1.1" 200 1845
0:0:0:0:0:0:0:1 - - [05/Feb/2021:21:01:21 +0530] "GET /newstationary-salesmanagementsystem/search-edit.jsp HTTP/1.1" 200 2210
0:0:0:0:0:0:0:1 - - [05/Feb/2021:21:01:53 +0530] "GET /newstationary-salesmanagementsystem/productViewer?product_id= HTTP/1.1" 404 804
0:0:0:0:0:0:0:1 - - [05/Feb/2021:21:02:11 +0530] "GET /newstationary-salesmanagementsystem/ProductViewer?product_id= HTTP/1.1" 500 1541
0:0:0:0:0:0:0:1 - - [05/Feb/2021:21:04:22 +0530] "GET /newstationary-salesmanagementsystem/productViewer?product_id= HTTP/1.1" 404 804
0:0:0:0:0:0:0:1 - - [05/Feb/2021:21:04:30 +0530] "GET /newstationary-salesmanagementsystem/search-edit.jsp HTTP/1.1" 200 2210
0:0:0:0:0:0:0:1 - - [05/Feb/2021:21:04:33 +0530] "GET /newstationary-salesmanagementsystem/ProductViewer?product_id= HTTP/1.1" 500 1541
0:0:0:0:0:0:0:1 - - [05/Feb/2021:21:05:15 +0530] "GET /newstationary-salesmanagementsystem/add-product.jsp HTTP/1.1" 200 1845
0:0:0:0:0:0:0:1 - - [05/Feb/2021:21:05:15 +0530] "GET /newstationary-salesmanagementsystem/add-product.jsp HTTP/1.1" 200 1845
0:0:0:0:0:0:0:1 - - [05/Feb/2021:21:05:17 +0530] "POST /newstationary-salesmanagementsystem/ProductManager HTTP/1.1" 500 1546
0:0:0:0:0:0:0:1 - - [05/Feb/2021:21:05:35 +0530] "POST /newstationary-salesmanagementsystem/ProductManager HTTP/1.1" 200 1870
0:0:0:0:0:0:0:1 - - [05/Feb/2021:21:05:52 +0530] "POST /newstationary-salesmanagementsystem/ProductManager HTTP/1.1" 500 1546
0:0:0:0:0:0:0:1 - - [05/Feb/2021:21:06:15 +0530] "POST /newstationary-salesmanagementsystem/ProductManager HTTP/1.1" 200 1870
0:0:0:0:0:0:0:1 - - [05/Feb/2021:21:07:00 +0530] "GET /newstationary-salesmanagementsystem/search-edit.jsp HTTP/1.1" 200 2210
0:0:0:0:0:0:0:1 - - [05/Feb/2021:21:07:09 +0530] "GET /newstationary-salesmanagementsystem/ProductViewer?product_id=3 HTTP/1.1" 200 2235
0:0:0:0:0:0:0:1 - - [05/Feb/2021:21:08:13 +0530] "GET /newstationary-salesmanagementsystem/ProductViewer?product_id=3 HTTP/1.1" 200 2235
0:0:0:0:0:0:0:1 - - [05/Feb/2021:21:08:15 +0530] "GET /newstationary-salesmanagementsystem/ProductViewer?action=all HTTP/1.1" 200 1015
0:0:0:0:0:0:0:1 - - [05/Feb/2021:21:08:17 +0530] "GET /newstationary-salesmanagementsystem/ProductViewer?action=all HTTP/1.1" 200 1015
0:0:0:0:0:0:0:1 - - [05/Feb/2021:21:08:19 +0530] "GET /newstationary-salesmanagementsystem/add-product.jsp HTTP/1.1" 200 1845
0:0:0:0:0:0:0:1 - - [05/Feb/2021:21:08:33 +0530] "POST /newstationary-salesmanagementsystem/ProductManager HTTP/1.1" 200 1870
0:0:0:0:0:0:0:1 - - [05/Feb/2021:21:10:32 +0530] "POST /newstationary-salesmanagementsystem/ProductManager HTTP/1.1" 200 1870
0:0:0:0:0:0:0:1 - - [05/Feb/2021:21:10:37 +0530] "POST /newstationary-salesmanagementsystem/ProductManager HTTP/1.1" 200 1870
0:0:0:0:0:0:0:1 - - [05/Feb/2021:21:10:39 +0530] "GET /newstationary-salesmanagementsystem/ProductViewer?action=all HTTP/1.1" 200 1015
0:0:0:0:0:0:0:1 - - [05/Feb/2021:21:10:41 +0530] "GET /newstationary-salesmanagementsystem/add-product.jsp HTTP/1.1" 200 1845
0:0:0:0:0:0:0:1 - - [05/Feb/2021:21:10:42 +0530] "GET /newstationary-salesmanagementsystem/search-edit.jsp HTTP/1.1" 200 2210
0:0:0:0:0:0:0:1 - - [05/Feb/2021:21:10:46 +0530] "GET /newstationary-salesmanagementsystem/add-product.jsp HTTP/1.1" 200 1845
0:0:0:0:0:0:0:1 - - [05/Feb/2021:21:10:59 +0530] "POST /newstationary-salesmanagementsystem/ProductManager HTTP/1.1" 200 1870
0:0:0:0:0:0:0:1 - - [05/Feb/2021:21:11:26 +0530] "GET /newstationary-salesmanagementsystem/ProductViewer?action=all HTTP/1.1" 200 1015
0:0:0:0:0:0:0:1 - - [05/Feb/2021:21:11:27 +0530] "GET /newstationary-salesmanagementsystem/ProductViewer?action=all HTTP/1.1" 200 1015
0:0:0:0:0:0:0:1 - - [05/Feb/2021:21:11:30 +0530] "GET /newstationary-salesmanagementsystem/ProductViewer?action=all HTTP/1.1" 200 1015
0:0:0:0:0:0:0:1 - - [05/Feb/2021:21:11:36 +0530] "GET /newstationary-salesmanagementsystem/ProductViewer?action=all HTTP/1.1" 200 1015
0:0:0:0:0:0:0:1 - - [05/Feb/2021:21:11:40 +0530] "GET /newstationary-salesmanagementsystem/add-product.jsp HTTP/1.1" 200 1845
0:0:0:0:0:0:0:1 - - [05/Feb/2021:21:11:59 +0530] "POST /newstationary-salesmanagementsystem/ProductManager HTTP/1.1" 200 1870
0:0:0:0:0:0:0:1 - - [05/Feb/2021:21:13:32 +0530] "POST /newstationary-salesmanagementsystem/ProductManager HTTP/1.1" 500 1546
0:0:0:0:0:0:0:1 - - [05/Feb/2021:21:14:21 +0530] "GET /newstationary-salesmanagementsystem/search-edit.jsp HTTP/1.1" 200 2210
0:0:0:0:0:0:0:1 - - [05/Feb/2021:21:14:23 +0530] "GET /newstationary-salesmanagementsystem/add-product.jsp HTTP/1.1" 200 1845
0:0:0:0:0:0:0:1 - - [05/Feb/2021:21:15:50 +0530] "POST /newstationary-salesmanagementsystem/ProductManager HTTP/1.1" 200 1870
127.0.0.1 - - [05/Feb/2021:21:25:39 +0530] "GET / HTTP/1.1" 404 751
0:0:0:0:0:0:0:1 - - [05/Feb/2021:21:26:12 +0530] "GET /newstationary-salesmanagementsystem/ProductManager HTTP/1.1" 405 751
0:0:0:0:0:0:0:1 - - [05/Feb/2021:21:26:28 +0530] "GET /newstationary-salesmanagementsystem/ProductViewer?action=all HTTP/1.1" 200 1015
0:0:0:0:0:0:0:1 - - [05/Feb/2021:21:26:31 +0530] "GET /newstationary-salesmanagementsystem/add-product.jsp HTTP/1.1" 200 1845
0:0:0:0:0:0:0:1 - - [05/Feb/2021:21:26:46 +0530] "POST /newstationary-salesmanagementsystem/ProductManager HTTP/1.1" 200 1870
0:0:0:0:0:0:0:1 - - [05/Feb/2021:21:27:20 +0530] "POST /newstationary-salesmanagementsystem/ProductManager HTTP/1.1" 200 1870
0:0:0:0:0:0:0:1 - - [05/Feb/2021:21:27:41 +0530] "POST /newstationary-salesmanagementsystem/ProductManager HTTP/1.1" 500 1546
127.0.0.1 - - [05/Feb/2021:21:31:56 +0530] "GET / HTTP/1.1" 404 751
0:0:0:0:0:0:0:1 - - [05/Feb/2021:21:31:57 +0530] "GET /newstationary-salesmanagementsystem/ HTTP/1.1" 302 -
0:0:0:0:0:0:0:1 - - [05/Feb/2021:21:32:00 +0530] "GET /newstationary-salesmanagementsystem/ProductViewer?action=all HTTP/1.1" 200 1413
0:0:0:0:0:0:0:1 - - [05/Feb/2021:21:32:05 +0530] "GET /newstationary-salesmanagementsystem/add-product.jsp HTTP/1.1" 200 1845
0:0:0:0:0:0:0:1 - - [05/Feb/2021:21:32:32 +0530] "POST /newstationary-salesmanagementsystem/ProductManager HTTP/1.1" 200 1892
0:0:0:0:0:0:0:1 - - [05/Feb/2021:21:34:15 +0530] "POST /newstationary-salesmanagementsystem/ProductManager HTTP/1.1" 200 1879
0:0:0:0:0:0:0:1 - - [05/Feb/2021:21:34:27 +0530] "GET /newstationary-salesmanagementsystem/ProductViewer?action=all HTTP/1.1" 200 1553
0:0:0:0:0:0:0:1 - - [05/Feb/2021:21:34:35 +0530] "GET /newstationary-salesmanagementsystem/search-edit.jsp HTTP/1.1" 200 2210
0:0:0:0:0:0:0:1 - - [05/Feb/2021:21:34:41 +0530] "GET /newstationary-salesmanagementsystem/ProductViewer?product_id=4 HTTP/1.1" 200 2228
0:0:0:0:0:0:0:1 - - [05/Feb/2021:21:34:53 +0530] "POST /newstationary-salesmanagementsystem/ProductManager HTTP/1.1" 200 -
0:0:0:0:0:0:0:1 - - [05/Feb/2021:21:58:01 +0530] "GET /newstationary-salesmanagementsystem/ProductViewer?action=all HTTP/1.1" 200 1553
0:0:0:0:0:0:0:1 - - [05/Feb/2021:21:58:04 +0530] "GET /newstationary-salesmanagementsystem/add-product.jsp HTTP/1.1" 200 1845
0:0:0:0:0:0:0:1 - - [05/Feb/2021:21:58:08 +0530] "GET /newstationary-salesmanagementsystem/search-edit.jsp HTTP/1.1" 200 2210
0:0:0:0:0:0:0:1 - - [05/Feb/2021:21:58:09 +0530] "GET /newstationary-salesmanagementsystem/add-product.jsp HTTP/1.1" 200 1845
0:0:0:0:0:0:0:1 - - [05/Feb/2021:21:58:10 +0530] "GET /newstationary-salesmanagementsystem/ProductViewer?action=all HTTP/1.1" 200 1553
0:0:0:0:0:0:0:1 - - [05/Feb/2021:21:58:13 +0530] "GET /newstationary-salesmanagementsystem/add-product.jsp HTTP/1.1" 200 1845
0:0:0:0:0:0:0:1 - - [05/Feb/2021:21:58:15 +0530] "GET /newstationary-salesmanagementsystem/search-edit.jsp HTTP/1.1" 200 2210
0:0:0:0:0:0:0:1 - - [05/Feb/2021:21:58:17 +0530] "GET /newstationary-salesmanagementsystem/add-product.jsp HTTP/1.1" 200 1845
0:0:0:0:0:0:0:1 - - [05/Feb/2021:21:58:19 +0530] "GET /newstationary-salesmanagementsystem/ProductViewer?action=all HTTP/1.1" 200 1553
0:0:0:0:0:0:0:1 - - [05/Feb/2021:22:05:29 +0530] "GET /newstationary-salesmanagementsystem/ProductViewer?action=all HTTP/1.1" 200 1574
0:0:0:0:0:0:0:1 - - [05/Feb/2021:22:05:32 +0530] "GET /newstationary-salesmanagementsystem/add-product.jsp HTTP/1.1" 200 1845
0:0:0:0:0:0:0:1 - - [05/Feb/2021:22:05:36 +0530] "GET /newstationary-salesmanagementsystem/search-edit.jsp HTTP/1.1" 200 2210
0:0:0:0:0:0:0:1 - - [05/Feb/2021:22:13:15 +0530] "GET /newstationary-salesmanagementsystem/search-edit.jsp HTTP/1.1" 200 2262
0:0:0:0:0:0:0:1 - - [05/Feb/2021:22:13:20 +0530] "GET /newstationary-salesmanagementsystem/ProductViewer?action=all HTTP/1.1" 200 1574
0:0:0:0:0:0:0:1 - - [05/Feb/2021:22:13:22 +0530] "GET /newstationary-salesmanagementsystem/search-edit.jsp HTTP/1.1" 200 2262
0:0:0:0:0:0:0:1 - - [05/Feb/2021:22:13:25 +0530] "GET /newstationary-salesmanagementsystem/ProductViewer?product_id=4 HTTP/1.1" 200 2280
0:0:0:0:0:0:0:1 - - [05/Feb/2021:22:13:36 +0530] "POST /newstationary-salesmanagementsystem/ProductManager HTTP/1.1" 200 2438
0:0:0:0:0:0:0:1 - - [05/Feb/2021:22:16:50 +0530] "GET /newstationary-salesmanagementsystem/ProductViewer?action=all HTTP/1.1" 200 1574
0:0:0:0:0:0:0:1 - - [05/Feb/2021:22:16:56 +0530] "GET /newstationary-salesmanagementsystem/search-edit.jsp HTTP/1.1" 200 2262
0:0:0:0:0:0:0:1 - - [05/Feb/2021:22:17:03 +0530] "GET /newstationary-salesmanagementsystem/ProductViewer?product_id=4 HTTP/1.1" 200 2280
0:0:0:0:0:0:0:1 - - [05/Feb/2021:22:17:19 +0530] "POST /newstationary-salesmanagementsystem/ProductManager HTTP/1.1" 200 2438
0:0:0:0:0:0:0:1 - - [05/Feb/2021:22:18:49 +0530] "POST /newstationary-salesmanagementsystem/ProductManager HTTP/1.1" 200 2441
0:0:0:0:0:0:0:1 - - [05/Feb/2021:22:18:52 +0530] "GET /newstationary-salesmanagementsystem/ProductViewer?action=all HTTP/1.1" 200 1574
0:0:0:0:0:0:0:1 - - [05/Feb/2021:22:18:53 +0530] "GET /newstationary-salesmanagementsystem/search-edit.jsp HTTP/1.1" 200 2262
0:0:0:0:0:0:0:1 - - [05/Feb/2021:22:18:58 +0530] "GET /newstationary-salesmanagementsystem/ProductViewer?product_id=4 HTTP/1.1" 200 2280
0:0:0:0:0:0:0:1 - - [05/Feb/2021:22:19:18 +0530] "POST /newstationary-salesmanagementsystem/ProductManager HTTP/1.1" 200 2440
0:0:0:0:0:0:0:1 - - [05/Feb/2021:22:19:36 +0530] "GET /newstationary-salesmanagementsystem/ProductViewer?product_id=4 HTTP/1.1" 200 2280
0:0:0:0:0:0:0:1 - - [05/Feb/2021:22:19:58 +0530] "POST /newstationary-salesmanagementsystem/ProductManager HTTP/1.1" 200 2441
0:0:0:0:0:0:0:1 - - [05/Feb/2021:22:22:10 +0530] "GET /newstationary-salesmanagementsystem/ProductViewer?action=all HTTP/1.1" 200 1574
0:0:0:0:0:0:0:1 - - [05/Feb/2021:22:22:12 +0530] "GET /newstationary-salesmanagementsystem/ProductViewer?action=all HTTP/1.1" 200 1574
0:0:0:0:0:0:0:1 - - [05/Feb/2021:22:23:11 +0530] "GET /newstationary-salesmanagementsystem/add-product.jsp HTTP/1.1" 200 1845
0:0:0:0:0:0:0:1 - - [05/Feb/2021:22:23:13 +0530] "GET /newstationary-salesmanagementsystem/search-edit.jsp HTTP/1.1" 200 2262
0:0:0:0:0:0:0:1 - - [05/Feb/2021:22:23:15 +0530] "GET /newstationary-salesmanagementsystem/add-product.jsp HTTP/1.1" 200 1845
0:0:0:0:0:0:0:1 - - [05/Feb/2021:22:23:38 +0530] "POST /newstationary-salesmanagementsystem/ProductManager HTTP/1.1" 200 1879
0:0:0:0:0:0:0:1 - - [05/Feb/2021:22:23:42 +0530] "GET /newstationary-salesmanagementsystem/search-edit.jsp HTTP/1.1" 200 2262
0:0:0:0:0:0:0:1 - - [05/Feb/2021:22:23:57 +0530] "GET /newstationary-salesmanagementsystem/ProductViewer?product_id=5 HTTP/1.1" 200 2284
0:0:0:0:0:0:0:1 - - [05/Feb/2021:22:24:11 +0530] "POST /newstationary-salesmanagementsystem/ProductManager HTTP/1.1" 200 2438
0:0:0:0:0:0:0:1 - - [05/Feb/2021:22:26:47 +0530] "POST /newstationary-salesmanagementsystem/ProductManager HTTP/1.1" 200 2438
0:0:0:0:0:0:0:1 - - [05/Feb/2021:22:26:50 +0530] "GET /newstationary-salesmanagementsystem/add-product.jsp HTTP/1.1" 200 1845
0:0:0:0:0:0:0:1 - - [05/Feb/2021:22:26:51 +0530] "GET /newstationary-salesmanagementsystem/search-edit.jsp HTTP/1.1" 200 2262
0:0:0:0:0:0:0:1 - - [05/Feb/2021:22:31:54 +0530] "GET /newstationary-salesmanagementsystem/add-product.jsp HTTP/1.1" 200 1845
0:0:0:0:0:0:0:1 - - [05/Feb/2021:22:32:01 +0530] "GET /newstationary-salesmanagementsystem/search-edit.jsp HTTP/1.1" 200 2262
0:0:0:0:0:0:0:1 - - [05/Feb/2021:22:32:05 +0530] "GET /newstationary-salesmanagementsystem/ProductViewer?product_id=2 HTTP/1.1" 200 2282
0:0:0:0:0:0:0:1 - - [05/Feb/2021:22:32:13 +0530] "POST /newstationary-salesmanagementsystem/ProductManager HTTP/1.1" 200 2438
127.0.0.1 - - [05/Feb/2021:22:34:36 +0530] "GET / HTTP/1.1" 404 751
0:0:0:0:0:0:0:1 - - [05/Feb/2021:22:35:20 +0530] "POST /newstationary-salesmanagementsystem/ProductManager HTTP/1.1" 200 2438
0:0:0:0:0:0:0:1 - - [05/Feb/2021:22:35:27 +0530] "GET /newstationary-salesmanagementsystem/ProductViewer?action=all HTTP/1.1" 200 1718
0:0:0:0:0:0:0:1 - - [05/Feb/2021:22:35:28 +0530] "GET /newstationary-salesmanagementsystem/add-product.jsp HTTP/1.1" 200 1845
0:0:0:0:0:0:0:1 - - [05/Feb/2021:22:35:29 +0530] "GET /newstationary-salesmanagementsystem/search-edit.jsp HTTP/1.1" 200 2262
0:0:0:0:0:0:0:1 - - [05/Feb/2021:22:35:33 +0530] "GET /newstationary-salesmanagementsystem/ProductViewer?product_id=4 HTTP/1.1" 200 2280
0:0:0:0:0:0:0:1 - - [05/Feb/2021:22:35:39 +0530] "POST /newstationary-salesmanagementsystem/ProductManager HTTP/1.1" 200 2438
