<?xml version="1.0" encoding="UTF-8"?>
<session version="1.0">
<refactoring comment="Delete resource &apos;stationary-salesmanagementsystem&apos;" deleteContents="false" description="Delete resource &apos;stationary-salesmanagementsystem&apos;" element1="/stationary-salesmanagementsystem" flags="7" id="org.eclipse.ltk.core.refactoring.delete.resources" resources="1" stamp="1612160754805"/>
</session>